…
 [7] "arrival_date_day_of_month"      "stays_in_weekend_nights"
 [9] "stays_in_week_nights"           "adults"
[11] "children"                       "babies"
[13] "meal"                           "country"
[15] "market_segment"                 "distribution_channel"
[17] "is_repeated_guest"              "previous_cancellations"
[19] "previous_bookings_not_canceled" "reserved_room_type"
[21] "assigned_room_type"             "booking_changes"
[23] "deposit_type"                   "agent"
[25] "company"                        "days_in_waiting_list"
[27] "customer_type"                  "adr"
[29] "required_car_parking_spaces"    "total_of_special_requests"     
[31] "reservation_status"             "reservation_status_date"
> arrange(hotel_bookings, lead_time)
# A tibble: 119,390 × 32
   hotel        is_canceled lead_time arrival_date_year arrival_date_month
   <chr>              <dbl>     <dbl>             <dbl> <chr>
 1 Resort Hotel           0         0              2015 July
 2 Resort Hotel           0         0              2015 July
 3 Resort Hotel           0         0              2015 July
 4 Resort Hotel           0         0              2015 July
 5 Resort Hotel           0         0              2015 July
 6 Resort Hotel           0         0              2015 July
 7 Resort Hotel           0         0              2015 July
 8 Resort Hotel           0         0              2015 July
 9 Resort Hotel           0         0              2015 July              
10 Resort Hotel           0         0              2015 July
# ℹ 119,380 more rows
# ℹ 27 more variables: arrival_date_week_number <dbl>,
#   arrival_date_day_of_month <dbl>, stays_in_weekend_nights <dbl>,
#   stays_in_week_nights <dbl>, adults <dbl>, children <dbl>, babies <dbl>,
#   meal <chr>, country <chr>, market_segment <chr>,
#   distribution_channel <chr>, is_repeated_guest <dbl>,
#   previous_cancellations <dbl>, previous_bookings_not_canceled <dbl>, …
# ℹ Use `print(n = ...)` to see more rows
> arrange(hotel_bookings, desc(lead_time))
# A tibble: 119,390 × 32
   hotel        is_canceled lead_time arrival_date_year arrival_date_month
   <chr>              <dbl>     <dbl>             <dbl> <chr>
 1 Resort Hotel           0       737              2015 July
 2 Resort Hotel           0       709              2016 February          
 3 City Hotel             1       629              2017 March
 4 City Hotel             1       629              2017 March
 5 City Hotel             1       629              2017 March
 6 City Hotel             1       629              2017 March
 7 City Hotel             1       629              2017 March
 8 City Hotel             1       629              2017 March
 9 City Hotel             1       629              2017 March
10 City Hotel             1       629              2017 March
# ℹ 119,380 more rows
# ℹ 27 more variables: arrival_date_week_number <dbl>,
#   arrival_date_day_of_month <dbl>, stays_in_weekend_nights <dbl>,
#   stays_in_week_nights <dbl>, adults <dbl>, children <dbl>, babies <dbl>,
#   meal <chr>, country <chr>, market_segment <chr>,
#   distribution_channel <chr>, is_repeated_guest <dbl>,
#   previous_cancellations <dbl>, previous_bookings_not_canceled <dbl>, …
# ℹ Use `print(n = ...)` to see more rows
…
